textmining.knit
…
# A tibble: 6 x 1
  texto                                                                         
  <chr>                                                                         
1 CHAPTER I. TREATS OF THE PLACE WHERE OLIVER TWIST WAS BORN AND OF THE CIRCUMS~
2 Among other public buildings in a certain town, which for many reasons it wil~
3 For a long time after it was ushered into this world of sorrow and trouble, b~
4 Although I am not disposed to maintain that the being born in a workhouse, is~
5 As Oliver gave this first proof of the free and proper action of his lungs, t~
6 The surgeon had been sitting with his face turned towards the fire: giving th~

En cuarto lugar, se han agrupado los párrafos por capítulos y se ha tokenizado.

# A tibble: 50 x 1
   texto                                                                        
   <chr>                                                                        
 1 CHAPTER I. TREATS OF THE PLACE WHERE OLIVER TWIST WAS BORN AND OF THE CIRCUM~
 2 CHAPTER II. TREATS OF OLIVER TWIST’S GROWTH, EDUCATION, AND BOARD            
 3 CHAPTER III. RELATES HOW OLIVER TWIST WAS VERY NEAR GETTING A PLACE WHICH WO~
 4 CHAPTER IV. OLIVER, BEING OFFERED ANOTHER PLACE, MAKES HIS FIRST ENTRY INTO ~
 5 CHAPTER V. OLIVER MINGLES WITH NEW ASSOCIATES. GOING TO A FUNERAL FOR THE FI~
 6 CHAPTER VI. OLIVER, BEING GOADED BY THE TAUNTS OF NOAH, ROUSES INTO ACTION, ~
 7 CHAPTER VII. OLIVER CONTINUES REFRACTORY                                     
 8 CHAPTER VIII. OLIVER WALKS TO LONDON. HE ENCOUNTERS ON THE ROAD A STRANGE SO~
 9 CHAPTER IX. CONTAINING FURTHER PARTICULARS CONCERNING THE PLEASANT OLD GENTL~
10 CHAPTER X. OLIVER BECOMES BETTER ACQUAINTED WITH THE CHARACTERS OF HIS NEW A~
# ... with 40 more rows
…
fear
negative
49

miss
negative
43

II.II. Análisis de sentimientos por capítulos

Una vez realizado el análisis de los sentimientos de la obra en su conjunto, teniendo en cuenta la evolución de los escenarios y de lo que transcurre a lo largo de dicha obra, puede ser de interés ver cómo se diferencian los distintos sentimientos a lo largo de los capítulos. Para ello, se han agrupado las palabras positivas y negativas por capítulos.

Así, en primer lugar, si se analizan las palabras positivas, se observa cómo hay dos secciones claves en las que hay más palabras positivas. Primero, en los capítulos XII y XIV hay una mayor frecuencia de palabras positivas. Veamos únicamente cómo se llama, por ejemplo, el capítulo XII. La segunda sección de palabras positivas frecuentes se da justo antes de finalizar en los capítulos XXXII, XXXIII, XXXIV y XXXVI. Sólo hace falta fijarse en el capítulo XXXII, donde Oliver Twist emprende diferentes amistades y aumenta su felicidad y bienestar respecto a anteriores situaciones.

# A tibble: 50 x 3
# Groups:   capitulo [50]
   capitulo                                                      sentiment     n
   <chr>                                                         <chr>     <int>
 1 CHAPTER I. TREATS OF THE PLACE WHERE OLIVER TWIST WAS BORN A~ positive     26
 2 CHAPTER II. TREATS OF OLIVER TWIST’S GROWTH, EDUCATION, AND ~ positive     86
 3 CHAPTER III. RELATES HOW OLIVER TWIST WAS VERY NEAR GETTING ~ positive     65
 4 CHAPTER IV. OLIVER, BEING OFFERED ANOTHER PLACE, MAKES HIS F~ positive     42
 5 CHAPTER IX. CONTAINING FURTHER PARTICULARS CONCERNING THE PL~ positive     62
 6 CHAPTER L. THE PURSUIT AND ESCAPE                             positive     43
 7 CHAPTER V. OLIVER MINGLES WITH NEW ASSOCIATES. GOING TO A FU~ positive     70
 8 CHAPTER VI. OLIVER, BEING GOADED BY THE TAUNTS OF NOAH, ROUS~ positive     41
 9 CHAPTER VII. OLIVER CONTINUES REFRACTORY                      positive     33
10 CHAPTER VIII. OLIVER WALKS TO LONDON. HE ENCOUNTERS ON THE R~ positive     55
# ... with 40 more rows

En segundo lugar, si se analizan las palabras negativas, en primer lugar se observan que sus frecuencias son mucho mayores. Parece paradójico que la mayor concentración de estos sentimientos negativos se dan al final de la obra, donde casi se alcanzan en uno de los capítulos las 200 palabras negativas.

# A tibble: 50 x 3
# Groups:   capitulo [50]
   capitulo                                                      sentiment     n
   <chr>                                                         <chr>     <int>
 1 CHAPTER I. TREATS OF THE PLACE WHERE OLIVER TWIST WAS BORN A~ negative     43
 2 CHAPTER II. TREATS OF OLIVER TWIST’S GROWTH, EDUCATION, AND ~ negative    106
 3 CHAPTER III. RELATES HOW OLIVER TWIST WAS VERY NEAR GETTING ~ negative    117
 4 CHAPTER IV. OLIVER, BEING OFFERED ANOTHER PLACE, MAKES HIS F~ negative     71
 5 CHAPTER IX. CONTAINING FURTHER PARTICULARS CONCERNING THE PL~ negative     46
 6 CHAPTER L. THE PURSUIT AND ESCAPE                             negative    165
 7 CHAPTER V. OLIVER MINGLES WITH NEW ASSOCIATES. GOING TO A FU~ negative    165
 8 CHAPTER VI. OLIVER, BEING GOADED BY THE TAUNTS OF NOAH, ROUS~ negative     89
 9 CHAPTER VII. OLIVER CONTINUES REFRACTORY                      negative    103
10 CHAPTER VIII. OLIVER WALKS TO LONDON. HE ENCOUNTERS ON THE R~ negative     99
# ... with 40 more rows
…
IV. Frecuencia de palabras

En este cuarto capítulo se va a explorar qué palabras aparecen más veces en el libro, a través de una tabla y de un gráfico. Ya que es la misma información obtenida en la primera nube de palabras graficada en el anterior capítulo, se verán muchas palabras repetidas. Sin embargo, al estar en un formato menos gráfico, pero más completo y preciso, en el que se verán cuántas veces se repite exactamente cada palabra, se podrá ver con más detalle las características del texto.

De esta forma, se observa que la palabra más frecuente es el nombre de pila del protagonista, que se menciona casi 700 veces. Llaman la atención palabras de estilo que se repiten mucho, como replied, time o incluso dear. También son muy frecuentes nombres de personajes, como Fagin, Sikes o Bumble. Hay que tener en cuento que se ha escapado alguna palabra vacía como don’t o it’s que, al ser contracciones, no aparecen en la base de stop words utilizada.

También se puede navegar en las palabras que eran demasiado raras para aparecer en la nube de texto, pero son suficienteme frecuentes como para tener un impacto en el texto, como los verbos usados(spoke, stood, brittles, stopped, appeared, fell, cried) en el texto, que también dan una idea de lo que pasa en el libro, con acciones físicas como caídas y paradas y acciones más literarias como hablar, aparecer o llorar.

# A tibble: 9,495 x 2
   word          n
   <chr>     <int>
 1 oliver      689
 2 replied     447
 3 bumble      346
 4 sikes       341
 5 time        302
 6 gentleman   296
 7 jew         290
 8 boy         277
 9 fagin       276
10 dear        266
# ... with 9,485 more rows
…
